<svg width="18" height="20" viewBox="0 0 18 20" fill="none" xmlns="http://www.w3.org/2000/svg">
<path d="M3.66667 0L3.66667 11.3333M3.66667 11.3333C2.19391 11.3333 1 12.5272 1 14C1 15.4728 2.19391 16.6667 3.66667 16.6667M3.66667 11.3333C5.13943 11.3333 6.33333 12.5272 6.33333 14C6.33333 15.4728 5.13943 16.6667 3.66667 16.6667M3.66667 16.6667V20M14.3333 0L14.3333 3.33333M14.3333 3.33333C12.8606 3.33333 11.6667 4.52724 11.6667 6C11.6667 7.47276 12.8606 8.66667 14.3333 8.66667M14.3333 3.33333C15.8061 3.33333 17 4.52724 17 6C17 7.47276 15.8061 8.66667 14.3333 8.66667M14.3333 8.66667V20" stroke="white"/>
</svg>
